"systemTypes","11/26/19 11:35 PM"
"name","description","longDesc","provisioning","createdBy","creationDate","lastUpdateDate","lastUpdatedBy","connectorTypes.connectorType","systems(systems).name","status.id"
"SyntempoConnector","SyntempoConnector","SyntempoConnector","1","-1",,,,"SyntempoConnector","Physical","302"
